Question_2/Questa/twoP_FSM_tb.vcd
$date
	Thu Feb 19 21:44:48 2026
$end
$version
	QuestaSim Version 2023.2
$end
$timescale
	1ns
$end

$scope module twoP_FSM_tb $end
$var reg 1 ! in_clka $end
$var reg 1 " in_clkb $end
$var reg 1 # in_restart $end
$var reg 1 $ in_left $end
$var reg 1 % in_right $end
$var reg 1 & in_brake $end
$var reg 160 ' phase_name [159:0] $end
$var wire 1 ( out_L0 $end
$var wire 1 ) out_L1 $end
$var wire 1 * out_L2 $end
$var wire 1 + out_R0 $end
$var wire 1 , out_R1 $end
$var wire 1 - out_R2 $end
$var wire 1 . out_error $end
$var wire 1 / out_state [3] $end
$var wire 1 0 out_state [2] $end
$var wire 1 1 out_state [1] $end
$var wire 1 2 out_state [0] $end

$scope task run_cycles $end
$var integer 32 3 num_cycles $end
$var integer 32 4 i $end
$upscope $end

$scope module U1 $end
$var parameter 32 5 SIZE $end
$var parameter 4 6 IDLE $end
$var parameter 4 7 L_S1 $end
$var parameter 4 8 L_S2 $end
$var parameter 4 9 L_S3 $end
$var parameter 4 : R_S1 $end
$var parameter 4 ; R_S2 $end
$var parameter 4 < R_S3 $end
$var parameter 4 = FAULT $end
$var wire 1 > clka $end
$var wire 1 ? clkb $end
$var wire 1 @ RESTART $end
$var wire 1 A LEFT $end
$var wire 1 B RIGHT $end
$var wire 1 C BRAKE $end
$var reg 1 D L0 $end
$var reg 1 E L1 $end
$var reg 1 F L2 $end
$var reg 1 G R0 $end
$var reg 1 H R1 $end
$var reg 1 I R2 $end
$var reg 1 J ERROR $end
$var reg 4 K state [3:0] $end
$var reg 4 L next_state [3:0] $end
$var reg 4 M temp_state [3:0] $end

$scope begin FSM_SEQ $end
$upscope $end

$scope begin OUTPUT_LOGIC $end
$upscope $end
$upscope $end
$upscope $end
$enddefinitions $end
#0
$dumpvars
0!
0"
0#
0$
0%
0&
b1001001010011100100100101010100 '
0D
0E
0F
0G
0H
0I
0J
bx K
b0 L
b0 M
b100 5
b0 6
b1 7
b10 8
b11 9
b100 :
b101 ;
b110 <
b111 =
bx 3
bx 4
0(
0)
0*
0+
0,
0-
0.
x2
x1
x0
x/
0C
0B
0A
0@
0?
0>
$end
#5
b110001001011100010000001010010010001010101001101010100010000010101001001010100 '
1#
b1 3
b0 4
1@
#15
1!
1>
#25
0!
0>
#35
1"
1?
#45
b1 4
b110010001011100010000001001001010001000100110001000101 '
0#
b0 4
0"
0@
0?
b0 K
02
01
00
0/
#55
1!
1>
#65
0!
0>
#75
1"
1?
#85
b1 4
b1100110010111000100000010011000100010101000110010101000010000001010100011101010111001001101110 '
1$
b1000 3
b0 4
0"
1A
0?
b1 M
#95
1!
1>
#105
0!
0>
b1 L
#115
1"
1?
#125
b1 4
0"
0?
b1 K
1D
12
1(
b10 M
#135
1!
1>
#145
0!
0>
b10 L
#155
1"
1?
#165
b10 4
0"
0?
b10 K
0D
1D
1E
02
11
1)
b11 M
#175
1!
1>
#185
0!
0>
b11 L
#195
1"
1?
#205
b11 4
0"
0?
b11 K
0D
0E
1D
1E
1F
12
1*
b0 M
#215
1!
1>
#225
0!
0>
b0 L
#235
1"
1?
#245
b100 4
0"
0?
b0 K
0D
0E
0F
02
01
0(
0)
0*
b1 M
#255
1!
1>
#265
0!
0>
b1 L
#275
1"
1?
#285
b101 4
0"
0?
b1 K
1D
12
1(
b10 M
#295
1!
1>
#305
0!
0>
b10 L
#315
1"
1?
#325
b110 4
0"
0?
b10 K
0D
1D
1E
02
11
1)
b11 M
#335
1!
1>
#345
0!
0>
b11 L
#355
1"
1?
#365
b111 4
0"
0?
b11 K
0D
0E
1D
1E
1F
12
1*
b0 M
#375
1!
1>
#385
0!
0>
b0 L
#395
1"
1?
#405
b1000 4
b1101000010111000100000010011000100010101000110010101000010000000101011001000000100001001010010010000010100101101000101 '
1&
b100 3
b0 4
0"
1C
0?
b0 K
0D
0E
0F
1G
1H
1I
02
01
0(
0)
0*
1+
1,
1-
b1 M
#415
1!
1>
#425
0!
0>
b1 L
#435
1"
1?
#445
b1 4
0"
0?
b1 K
0G
0H
0I
1D
1G
1H
1I
12
1(
b10 M
#455
1!
1>
#465
0!
0>
b10 L
#475
1"
1?
#485
b10 4
0"
0?
b10 K
0D
0G
0H
0I
1D
1E
1G
1H
1I
02
11
1)
b11 M
#495
1!
1>
#505
0!
0>
b11 L
#515
1"
1?
#525
b11 4
0"
0?
b11 K
0D
0E
0G
0H
0I
1D
1E
1F
1G
1H
1I
12
1*
b0 M
#535
1!
1>
#545
0!
0>
b0 L
#555
1"
1?
#565
b100 4
b110101001011100010000001001001010001000100110001000101 '
0$
0&
b1 3
b0 4
0"
0C
0A
0?
b0 K
0D
0E
0F
0G
0H
0I
02
01
0(
0)
0*
0+
0,
0-
#575
1!
1>
#585
0!
0>
#595
1"
1?
#605
b1 4
b110110001011100010000001010010010010010100011101001000010101000010000001010100011101010111001001101110 '
1%
b1000 3
b0 4
0"
1B
0?
b100 M
#615
1!
1>
#625
0!
0>
b100 L
#635
1"
1?
#645
b1 4
0"
0?
b100 K
1G
10
1+
b101 M
#655
1!
1>
#665
0!
0>
b101 L
#675
1"
1?
#685
b10 4
0"
0?
b101 K
0G
1G
1H
12
1,
b110 M
#695
1!
1>
#705
0!
0>
b110 L
#715
1"
1?
#725
b11 4
0"
0?
b110 K
0G
0H
1G
1H
1I
02
11
1-
b0 M
#735
1!
1>
#745
0!
0>
b0 L
#755
1"
1?
#765
b100 4
0"
0?
b0 K
0G
0H
0I
01
00
0+
0,
0-
b100 M
#775
1!
1>
#785
0!
0>
b100 L
#795
1"
1?
#805
b101 4
0"
0?
b100 K
1G
10
1+
b101 M
#815
1!
1>
#825
0!
0>
b101 L
#835
1"
1?
#845
b110 4
0"
0?
b101 K
0G
1G
1H
12
1,
b110 M
#855
1!
1>
#865
0!
0>
b110 L
#875
1"
1?
#885
b111 4
0"
0?
b110 K
0G
0H
1G
1H
1I
02
11
1-
b0 M
#895
1!
1>
#905
0!
0>
b0 L
#915
1"
1?
#925
b1000 4
b110111001011100010000001010010010010010100011101001000010101000010000000101011001000000100001001010010010000010100101101000101 '
1&
b100 3
b0 4
0"
1C
0?
b0 K
0G
0H
0I
1D
1E
1F
01
00
0+
0,
0-
1(
1)
1*
b100 M
#935
1!
1>
#945
0!
0>
b100 L
#955
1"
1?
#965
b1 4
0"
0?
b100 K
0D
0E
0F
1G
1D
1E
1F
10
1+
b101 M
#975
1!
1>
#985
0!
0>
b101 L
#995
1"
1?
#1005
b10 4
0"
0?
b101 K
0D
0E
0F
0G
1G
1H
1D
1E
1F
12
1,
b110 M
#1015
1!
1>
#1025
0!
0>
b110 L
#1035
1"
1?
#1045
b11 4
0"
0?
b110 K
0D
0E
0F
0G
0H
1G
1H
1I
1D
1E
1F
02
11
1-
b0 M
#1055
1!
1>
#1065
0!
0>
b0 L
#1075
1"
1?
#1085
b100 4
b111000001011100010000001000010010100100100000101001011010001010010000001001111011011100110110001111001 '
0%
b11 3
b0 4
0"
0B
0?
b0 K
0D
0E
0F
0G
0H
0I
1D
1E
1F
1G
1H
1I
01
00
#1095
1!
1>
#1105
0!
0>
#1115
1"
1?
#1125
b1 4
0"
0?
0D
0E
0F
0G
0H
0I
1D
1E
1F
1G
1H
1I
#1135
1!
1>
#1145
0!
0>
#1155
1"
1?
#1165
b10 4
0"
0?
0D
0E
0F
0G
0H
0I
1D
1E
1F
1G
1H
1I
#1175
1!
1>
#1185
0!
0>
#1195
1"
1?
#1205
b11 4
b11100100101110001000000100011001000001010101010100110001010100001000000010100001001100001010110101001000101001 '
1$
1%
0&
b10 3
b0 4
0"
0C
1A
1B
0?
b111 M
0D
0E
0F
0G
0H
0I
0(
0)
0*
0+
0,
0-
#1215
1!
1>
#1225
0!
0>
b111 L
#1235
1"
1?
#1245
b1 4
0"
0?
b111 K
1J
12
11
10
1.
#1255
1!
1>
#1265
0!
0>
#1275
1"
1?
#1285
b10 4
b1100010011000000101110001000000100100101000100010011000100010100100000001010000101001001100101011000110110111101110110011001010111001000101001 '
0$
0%
b1 3
b0 4
0"
0A
0B
0?
b0 M
0J
1J
#1295
1!
1>
#1305
0!
0>
b0 L
#1315
1"
1?
#1325
b1 4
b1100010011000100101110001000000100011001000001010101010100110001010100001000000010100001001100001010110101001000101001 '
1$
1%
b0 4
0"
1A
1B
0?
b111 M
b0 K
0J
02
01
00
0.
#1335
1!
1>
#1345
0!
0>
b111 L
#1355
1"
1?
#1365
b1 4
b1000100010011110100111001000101 '
0"
0?
b111 K
1J
12
11
10
1.
#1375
1!
1>
#1385
0!
0>
#1395
1"
1?
#1405
0"
0?
0J
1J
